%YAML 1.1
%TAG !u! tag:unity3d.com,2011:
--- !u!1 &6995616942257011831
GameObject:
  m_ObjectHideFlags: 0
  m_CorrespondingSourceObject: {fileID: 0}
  m_PrefabInstance: {fileID: 0}
  m_PrefabAsset: {fileID: 0}
  serializedVersion: 6
  m_Component:
  - component: {fileID: 6995616942257011829}
  - component: {fileID: 6995616942257011830}
  m_Layer: 0
  m_Name: Room Templates
  m_TagString: Rooms
  m_Icon: {fileID: 0}
  m_NavMeshLayer: 0
  m_StaticEditorFlags: 0
  m_IsActive: 1
--- !u!4 &6995616942257011829
Transform:
  m_ObjectHideFlags: 0
  m_CorrespondingSourceObject: {fileID: 0}
  m_PrefabInstance: {fileID: 0}
  m_PrefabAsset: {fileID: 0}
  m_GameObject: {fileID: 6995616942257011831}
  m_LocalRotation: {x: 0, y: 0, z: 0, w: 1}
  m_LocalPosition: {x: 0, y: 0, z: 0}
  m_LocalScale: {x: 1, y: 1, z: 1}
  m_ConstrainProportionsScale: 0
  m_Children: []
  m_Father: {fileID: 0}
  m_RootOrder: 0
  m_LocalEulerAnglesHint: {x: 0, y: 0, z: 0}
--- !u!114 &6995616942257011830
MonoBehaviour:
  m_ObjectHideFlags: 0
  m_CorrespondingSourceObject: {fileID: 0}
  m_PrefabInstance: {fileID: 0}
  m_PrefabAsset: {fileID: 0}
  m_GameObject: {fileID: 6995616942257011831}
  m_Enabled: 1
  m_EditorHideFlags: 0
  m_Script: {fileID: 11500000, guid: ff19e97c8aa08af458aee02821ae9696, type: 3}
  m_Name: 
  m_EditorClassIdentifier: 
  bottomRooms:
  - {fileID: 3916432176042824265, guid: b686d0d7e97d87d4eb85e39b90cb86e7, type: 3}
  - {fileID: 3571468150360574442, guid: d79483ac085d7ef45b8ea995176eaee3, type: 3}
  - {fileID: 5747908388115162727, guid: da13e4856c223af4794424e5722a9fc5, type: 3}
  - {fileID: 1805009492254923764, guid: 2a2eac7dcf0aef5459dca06adaee4a7a, type: 3}
  - {fileID: 5747908388115162727, guid: da13e4856c223af4794424e5722a9fc5, type: 3}
  topRooms:
  - {fileID: 7215227808956718326, guid: 18556625982bb0b4ea6dd6f90d69d5a6, type: 3}
  - {fileID: 5747908388115162727, guid: da13e4856c223af4794424e5722a9fc5, type: 3}
  - {fileID: 5715643015853134324, guid: 5ae4d2eef45c6794b8e267a419f98334, type: 3}
  - {fileID: 3290837797938272920, guid: 7812dd36420131c49a092ffffb1eb132, type: 3}
  - {fileID: 5747908388115162727, guid: da13e4856c223af4794424e5722a9fc5, type: 3}
  leftRooms:
  - {fileID: 3058166158481002304, guid: 3ece7bdf0e6cc0c449a25e0078a8ea85, type: 3}
  - {fileID: 5853744888501691198, guid: cd40c398ab49e1c44b6c126b87ba2f80, type: 3}
  - {fileID: 5715643015853134324, guid: 5ae4d2eef45c6794b8e267a419f98334, type: 3}
  - {fileID: 1805009492254923764, guid: 2a2eac7dcf0aef5459dca06adaee4a7a, type: 3}
  - {fileID: 5853744888501691198, guid: cd40c398ab49e1c44b6c126b87ba2f80, type: 3}
  rightRooms:
  - {fileID: 5853744888501691198, guid: cd40c398ab49e1c44b6c126b87ba2f80, type: 3}
  - {fileID: 8112642295589912764, guid: fbeb9fd6763f48042abf0c187d2486ac, type: 3}
  - {fileID: 3571468150360574442, guid: d79483ac085d7ef45b8ea995176eaee3, type: 3}
  - {fileID: 3290837797938272920, guid: 7812dd36420131c49a092ffffb1eb132, type: 3}
  - {fileID: 5853744888501691198, guid: cd40c398ab49e1c44b6c126b87ba2f80, type: 3}
  closedRoom: {fileID: 8904697675934722521, guid: 7a4254ec19d5e50428dd59052407ff6c, type: 3}
  rooms: []
  waitTime: 2
  boss: {fileID: 1898445321837384, guid: 09e14c596e782a742829f1166838514d, type: 3}
