%YAML 1.1
%TAG !u! tag:unity3d.com,2011:
--- !u!29 &1
OcclusionCullingSettings:
  m_ObjectHideFlags: 0
  serializedVersion: 2
  m_OcclusionBakeSettings:
    smallestOccluder: 5
    smallestHole: 0.25
    backfaceThreshold: 100
  m_SceneGUID: 00000000000000000000000000000000
  m_OcclusionCullingData: {fileID: 0}
--- !u!104 &2
RenderSettings:
  m_ObjectHideFlags: 0
  serializedVersion: 9
  m_Fog: 0
  m_FogColor: {r: 0.5, g: 0.5, b: 0.5, a: 1}
  m_FogMode: 3
  m_FogDensity: 0.01
  m_LinearFogStart: 0
  m_LinearFogEnd: 300
  m_AmbientSkyColor: {r: 0.212, g: 0.227, b: 0.259, a: 1}
  m_AmbientEquatorColor: {r: 0.114, g: 0.125, b: 0.133, a: 1}
  m_AmbientGroundColor: {r: 0.047, g: 0.043, b: 0.035, a: 1}
  m_AmbientIntensity: 1
  m_AmbientMode: 0
  m_SubtractiveShadowColor: {r: 0.42, g: 0.478, b: 0.627, a: 1}
  m_SkyboxMaterial: {fileID: 10304, guid: 0000000000000000f000000000000000, type: 0}
  m_HaloStrength: 0.5
  m_FlareStrength: 1
  m_FlareFadeSpeed: 3
  m_HaloTexture: {fileID: 0}
  m_SpotCookie: {fileID: 10001, guid: 0000000000000000e000000000000000, type: 0}
  m_DefaultReflectionMode: 0
  m_DefaultReflectionResolution: 128
  m_ReflectionBounces: 1
  m_ReflectionIntensity: 1
  m_CustomReflection: {fileID: 0}
  m_Sun: {fileID: 0}
  m_IndirectSpecularColor: {r: 0.37311953, g: 0.38074014, b: 0.3587274, a: 1}
  m_UseRadianceAmbientProbe: 0
--- !u!157 &3
LightmapSettings:
  m_ObjectHideFlags: 0
  serializedVersion: 12
  m_GIWorkflowMode: 1
  m_GISettings:
    serializedVersion: 2
    m_BounceScale: 1
    m_IndirectOutputScale: 1
    m_AlbedoBoost: 1
    m_EnvironmentLightingMode: 0
    m_EnableBakedLightmaps: 1
    m_EnableRealtimeLightmaps: 0
  m_LightmapEditorSettings:
    serializedVersion: 12
    m_Resolution: 2
    m_BakeResolution: 40
    m_AtlasSize: 1024
    m_AO: 0
    m_AOMaxDistance: 1
    m_CompAOExponent: 1
    m_CompAOExponentDirect: 0
    m_ExtractAmbientOcclusion: 0
    m_Padding: 2
    m_LightmapParameters: {fileID: 0}
    m_LightmapsBakeMode: 1
    m_TextureCompression: 1
    m_FinalGather: 0
    m_FinalGatherFiltering: 1
    m_FinalGatherRayCount: 256
    m_ReflectionCompression: 2
    m_MixedBakeMode: 2
    m_BakeBackend: 1
    m_PVRSampling: 1
    m_PVRDirectSampleCount: 32
    m_PVRSampleCount: 512
    m_PVRBounces: 2
    m_PVREnvironmentSampleCount: 256
    m_PVREnvironmentReferencePointCount: 2048
    m_PVRFilteringMode: 1
    m_PVRDenoiserTypeDirect: 1
    m_PVRDenoiserTypeIndirect: 1
    m_PVRDenoiserTypeAO: 1
    m_PVRFilterTypeDirect: 0
    m_PVRFilterTypeIndirect: 0
    m_PVRFilterTypeAO: 0
    m_PVREnvironmentMIS: 1
    m_PVRCulling: 1
    m_PVRFilteringGaussRadiusDirect: 1
    m_PVRFilteringGaussRadiusIndirect: 5
    m_PVRFilteringGaussRadiusAO: 2
    m_PVRFilteringAtrousPositionSigmaDirect: 0.5
    m_PVRFilteringAtrousPositionSigmaIndirect: 2
    m_PVRFilteringAtrousPositionSigmaAO: 1
    m_ExportTrainingData: 0
    m_TrainingDataDestination: TrainingData
    m_LightProbeSampleCountMultiplier: 4
  m_LightingDataAsset: {fileID: 0}
  m_LightingSettings: {fileID: 0}
--- !u!196 &4
NavMeshSettings:
  serializedVersion: 2
  m_ObjectHideFlags: 0
  m_BuildSettings:
    serializedVersion: 2
    agentTypeID: 0
    agentRadius: 0.5
    agentHeight: 2
    agentSlope: 45
    agentClimb: 0.4
    ledgeDropHeight: 0
    maxJumpAcrossDistance: 0
    minRegionArea: 2
    manualCellSize: 0
    cellSize: 0.16666667
    manualTileSize: 0
    tileSize: 256
    accuratePlacement: 0
    maxJobWorkers: 0
    preserveTilesOutsideBounds: 0
    debug:
      m_Flags: 0
  m_NavMeshData: {fileID: 0}
--- !u!1 &382347925
GameObject:
  m_ObjectHideFlags: 0
  m_CorrespondingSourceObject: {fileID: 0}
  m_PrefabInstance: {fileID: 0}
  m_PrefabAsset: {fileID: 0}
  serializedVersion: 6
  m_Component:
  - component: {fileID: 382347926}
  - component: {fileID: 382347927}
  m_Layer: 0
  m_Name: Grid
  m_TagString: Untagged
  m_Icon: {fileID: 0}
  m_NavMeshLayer: 0
  m_StaticEditorFlags: 0
  m_IsActive: 1
--- !u!4 &382347926
Transform:
  m_ObjectHideFlags: 0
  m_CorrespondingSourceObject: {fileID: 0}
  m_PrefabInstance: {fileID: 0}
  m_PrefabAsset: {fileID: 0}
  m_GameObject: {fileID: 382347925}
  m_LocalRotation: {x: 0, y: 0, z: 0, w: 1}
  m_LocalPosition: {x: 0, y: 0, z: 0}
  m_LocalScale: {x: 1, y: 1, z: 1}
  m_ConstrainProportionsScale: 0
  m_Children: []
  m_Father: {fileID: 1380450178}
  m_RootOrder: 45
  m_LocalEulerAnglesHint: {x: 0, y: 0, z: 0}
--- !u!114 &382347927
MonoBehaviour:
  m_ObjectHideFlags: 0
  m_CorrespondingSourceObject: {fileID: 0}
  m_PrefabInstance: {fileID: 0}
  m_PrefabAsset: {fileID: 0}
  m_GameObject: {fileID: 382347925}
  m_Enabled: 1
  m_EditorHideFlags: 0
  m_Script: {fileID: 11500000, guid: 4b251241d7f604747b1b68f0caaa2a85, type: 3}
  m_Name: 
  m_EditorClassIdentifier: 
  room: {fileID: 0}
  grid:
    columns: 0
    rows: 0
    verticalOffset: 8
    horizontalOffset: 8
  gridTile: {fileID: 4934500652166701568, guid: 042b5c67140844745863aff0a91fb219, type: 3}
  availablePoints: []
--- !u!1001 &597579810
PrefabInstance:
  m_ObjectHideFlags: 0
  serializedVersion: 2
  m_Modification:
    m_TransformParent: {fileID: 0}
    m_Modifications:
    - target: {fileID: 61613143776514631, guid: 7dcbf5cd124ec3849b5d1c4b959f43b7, type: 3}
      propertyPath: m_Layer
      value: 6
      objectReference: {fileID: 0}
    - target: {fileID: 109877854882748878, guid: 7dcbf5cd124ec3849b5d1c4b959f43b7, type: 3}
      propertyPath: m_RootOrder
      value: 48
      objectReference: {fileID: 0}
    - target: {fileID: 701621252376221299, guid: 7dcbf5cd124ec3849b5d1c4b959f43b7, type: 3}
      propertyPath: m_RootOrder
      value: 75
      objectReference: {fileID: 0}
    - target: {fileID: 765091218006687159, guid: 7dcbf5cd124ec3849b5d1c4b959f43b7, type: 3}
      propertyPath: m_Size.z
      value: 0.39344805
      objectReference: {fileID: 0}
    - target: {fileID: 765091218006687159, guid: 7dcbf5cd124ec3849b5d1c4b959f43b7, type: 3}
      propertyPath: m_Center.z
      value: 0.0032759607
      objectReference: {fileID: 0}
    - target: {fileID: 1056432684512374539, guid: 7dcbf5cd124ec3849b5d1c4b959f43b7, type: 3}
      propertyPath: m_RootOrder
      value: 49
      objectReference: {fileID: 0}
    - target: {fileID: 1069893211852039352, guid: 7dcbf5cd124ec3849b5d1c4b959f43b7, type: 3}
      propertyPath: m_Layer
      value: 6
      objectReference: {fileID: 0}
    - target: {fileID: 1131701624196984487, guid: 7dcbf5cd124ec3849b5d1c4b959f43b7, type: 3}
      propertyPath: m_Layer
      value: 6
      objectReference: {fileID: 0}
    - target: {fileID: 1244272689171195484, guid: 7dcbf5cd124ec3849b5d1c4b959f43b7, type: 3}
      propertyPath: m_RootOrder
      value: 83
      objectReference: {fileID: 0}
    - target: {fileID: 1377917749480862171, guid: 7dcbf5cd124ec3849b5d1c4b959f43b7, type: 3}
      propertyPath: m_RootOrder
      value: 66
      objectReference: {fileID: 0}
    - target: {fileID: 1447740360125534609, guid: 7dcbf5cd124ec3849b5d1c4b959f43b7, type: 3}
      propertyPath: m_Layer
      value: 6
      objectReference: {fileID: 0}
    - target: {fileID: 1473885988319122458, guid: 7dcbf5cd124ec3849b5d1c4b959f43b7, type: 3}
      propertyPath: m_Layer
      value: 6
      objectReference: {fileID: 0}
    - target: {fileID: 1772826535192508435, guid: 7dcbf5cd124ec3849b5d1c4b959f43b7, type: 3}
      propertyPath: m_RootOrder
      value: 70
      objectReference: {fileID: 0}
    - target: {fileID: 1875692272877202973, guid: 7dcbf5cd124ec3849b5d1c4b959f43b7, type: 3}
      propertyPath: m_RootOrder
      value: 72
      objectReference: {fileID: 0}
    - target: {fileID: 2222524616517117314, guid: 7dcbf5cd124ec3849b5d1c4b959f43b7, type: 3}
      propertyPath: m_Layer
      value: 6
      objectReference: {fileID: 0}
    - target: {fileID: 2222524616537865385, guid: 7dcbf5cd124ec3849b5d1c4b959f43b7, type: 3}
      propertyPath: m_Layer
      value: 6
      objectReference: {fileID: 0}
    - target: {fileID: 2222524616568891304, guid: 7dcbf5cd124ec3849b5d1c4b959f43b7, type: 3}
      propertyPath: m_Layer
      value: 6
      objectReference: {fileID: 0}
    - target: {fileID: 2222524616668096940, guid: 7dcbf5cd124ec3849b5d1c4b959f43b7, type: 3}
      propertyPath: m_Layer
      value: 6
      objectReference: {fileID: 0}
    - target: {fileID: 2222524616762438405, guid: 7dcbf5cd124ec3849b5d1c4b959f43b7, type: 3}
      propertyPath: m_Layer
      value: 6
      objectReference: {fileID: 0}
    - target: {fileID: 2222524616855473198, guid: 7dcbf5cd124ec3849b5d1c4b959f43b7, type: 3}
      propertyPath: m_Layer
      value: 6
      objectReference: {fileID: 0}
    - target: {fileID: 2222524616877746182, guid: 7dcbf5cd124ec3849b5d1c4b959f43b7, type: 3}
      propertyPath: m_Layer
      value: 6
      objectReference: {fileID: 0}
    - target: {fileID: 2222524616939787955, guid: 7dcbf5cd124ec3849b5d1c4b959f43b7, type: 3}
      propertyPath: m_Layer
      value: 6
      objectReference: {fileID: 0}
    - target: {fileID: 2222524616999980752, guid: 7dcbf5cd124ec3849b5d1c4b959f43b7, type: 3}
      propertyPath: m_Layer
      value: 6
      objectReference: {fileID: 0}
    - target: {fileID: 2222524617061788779, guid: 7dcbf5cd124ec3849b5d1c4b959f43b7, type: 3}
      propertyPath: m_Layer
      value: 6
      objectReference: {fileID: 0}
    - target: {fileID: 2222524617168475340, guid: 7dcbf5cd124ec3849b5d1c4b959f43b7, type: 3}
      propertyPath: m_Layer
      value: 6
      objectReference: {fileID: 0}
    - target: {fileID: 2222524617191405840, guid: 7dcbf5cd124ec3849b5d1c4b959f43b7, type: 3}
      propertyPath: m_Layer
      value: 6
      objectReference: {fileID: 0}
    - target: {fileID: 2222524617194658319, guid: 7dcbf5cd124ec3849b5d1c4b959f43b7, type: 3}
      propertyPath: m_Layer
      value: 6
      objectReference: {fileID: 0}
    - target: {fileID: 2222524617221598163, guid: 7dcbf5cd124ec3849b5d1c4b959f43b7, type: 3}
      propertyPath: m_Layer
      value: 6
      objectReference: {fileID: 0}
    - target: {fileID: 2222524617264252791, guid: 7dcbf5cd124ec3849b5d1c4b959f43b7, type: 3}
      propertyPath: m_Layer
      value: 6
      objectReference: {fileID: 0}
    - target: {fileID: 2222524617297110330, guid: 7dcbf5cd124ec3849b5d1c4b959f43b7, type: 3}
      propertyPath: m_Layer
      value: 6
      objectReference: {fileID: 0}
    - target: {fileID: 2222524617322519847, guid: 7dcbf5cd124ec3849b5d1c4b959f43b7, type: 3}
      propertyPath: m_Layer
      value: 6
      objectReference: {fileID: 0}
    - target: {fileID: 2222524617379251726, guid: 7dcbf5cd124ec3849b5d1c4b959f43b7, type: 3}
      propertyPath: m_Layer
      value: 6
      objectReference: {fileID: 0}
    - target: {fileID: 2222524617386970711, guid: 7dcbf5cd124ec3849b5d1c4b959f43b7, type: 3}
      propertyPath: m_Layer
      value: 6
      objectReference: {fileID: 0}
    - target: {fileID: 2222524617388582348, guid: 7dcbf5cd124ec3849b5d1c4b959f43b7, type: 3}
      propertyPath: m_Layer
      value: 6
      objectReference: {fileID: 0}
    - target: {fileID: 2222524617417993982, guid: 7dcbf5cd124ec3849b5d1c4b959f43b7, type: 3}
      propertyPath: m_Layer
      value: 6
      objectReference: {fileID: 0}
    - target: {fileID: 2222524617433730719, guid: 7dcbf5cd124ec3849b5d1c4b959f43b7, type: 3}
      propertyPath: m_Layer
      value: 6
      objectReference: {fileID: 0}
    - target: {fileID: 2222524617477117414, guid: 7dcbf5cd124ec3849b5d1c4b959f43b7, type: 3}
      propertyPath: m_Layer
      value: 6
      objectReference: {fileID: 0}
    - target: {fileID: 2222524617520809083, guid: 7dcbf5cd124ec3849b5d1c4b959f43b7, type: 3}
      propertyPath: m_Layer
      value: 6
      objectReference: {fileID: 0}
    - target: {fileID: 2222524617557025364, guid: 7dcbf5cd124ec3849b5d1c4b959f43b7, type: 3}
      propertyPath: m_Layer
      value: 6
      objectReference: {fileID: 0}
    - target: {fileID: 2222524617630143498, guid: 7dcbf5cd124ec3849b5d1c4b959f43b7, type: 3}
      propertyPath: m_Layer
      value: 6
      objectReference: {fileID: 0}
    - target: {fileID: 2222524617636436274, guid: 7dcbf5cd124ec3849b5d1c4b959f43b7, type: 3}
      propertyPath: m_Layer
      value: 6
      objectReference: {fileID: 0}
    - target: {fileID: 2222524617710374713, guid: 7dcbf5cd124ec3849b5d1c4b959f43b7, type: 3}
      propertyPath: m_Layer
      value: 6
      objectReference: {fileID: 0}
    - target: {fileID: 2222524617866945750, guid: 7dcbf5cd124ec3849b5d1c4b959f43b7, type: 3}
      propertyPath: m_Layer
      value: 6
      objectReference: {fileID: 0}
    - target: {fileID: 2222524617885692020, guid: 7dcbf5cd124ec3849b5d1c4b959f43b7, type: 3}
      propertyPath: m_Layer
      value: 6
      objectReference: {fileID: 0}
    - target: {fileID: 2222524617903725370, guid: 7dcbf5cd124ec3849b5d1c4b959f43b7, type: 3}
      propertyPath: m_Layer
      value: 6
      objectReference: {fileID: 0}
    - target: {fileID: 2222524617919635995, guid: 7dcbf5cd124ec3849b5d1c4b959f43b7, type: 3}
      propertyPath: m_Layer
      value: 6
      objectReference: {fileID: 0}
    - target: {fileID: 2222524617921172980, guid: 7dcbf5cd124ec3849b5d1c4b959f43b7, type: 3}
      propertyPath: m_Layer
      value: 6
      objectReference: {fileID: 0}
    - target: {fileID: 2222524617952561875, guid: 7dcbf5cd124ec3849b5d1c4b959f43b7, type: 3}
      propertyPath: m_Layer
      value: 6
      objectReference: {fileID: 0}
    - target: {fileID: 2222524617957050183, guid: 7dcbf5cd124ec3849b5d1c4b959f43b7, type: 3}
      propertyPath: m_Layer
      value: 6
      objectReference: {fileID: 0}
    - target: {fileID: 2222524617975206920, guid: 7dcbf5cd124ec3849b5d1c4b959f43b7, type: 3}
      propertyPath: m_Layer
      value: 6
      objectReference: {fileID: 0}
    - target: {fileID: 2222524618092184319, guid: 7dcbf5cd124ec3849b5d1c4b959f43b7, type: 3}
      propertyPath: m_Layer
      value: 6
      objectReference: {fileID: 0}
    - target: {fileID: 2222524618092272948, guid: 7dcbf5cd124ec3849b5d1c4b959f43b7, type: 3}
      propertyPath: m_Layer
      value: 6
      objectReference: {fileID: 0}
    - target: {fileID: 2222524618134263004, guid: 7dcbf5cd124ec3849b5d1c4b959f43b7, type: 3}
      propertyPath: m_Layer
      value: 6
      objectReference: {fileID: 0}
    - target: {fileID: 2222524618231180023, guid: 7dcbf5cd124ec3849b5d1c4b959f43b7, type: 3}
      propertyPath: m_Layer
      value: 6
      objectReference: {fileID: 0}
    - target: {fileID: 2222524618278442854, guid: 7dcbf5cd124ec3849b5d1c4b959f43b7, type: 3}
      propertyPath: m_Layer
      value: 6
      objectReference: {fileID: 0}
    - target: {fileID: 2222524618324265406, guid: 7dcbf5cd124ec3849b5d1c4b959f43b7, type: 3}
      propertyPath: m_Layer
      value: 6
      objectReference: {fileID: 0}
    - target: {fileID: 2222524618402807165, guid: 7dcbf5cd124ec3849b5d1c4b959f43b7, type: 3}
      propertyPath: m_Layer
      value: 6
      objectReference: {fileID: 0}
    - target: {fileID: 2222524618409472912, guid: 7dcbf5cd124ec3849b5d1c4b959f43b7, type: 3}
      propertyPath: m_Layer
      value: 6
      objectReference: {fileID: 0}
    - target: {fileID: 2222524618409624808, guid: 7dcbf5cd124ec3849b5d1c4b959f43b7, type: 3}
      propertyPath: m_Layer
      value: 6
      objectReference: {fileID: 0}
    - target: {fileID: 2222524618541567173, guid: 7dcbf5cd124ec3849b5d1c4b959f43b7, type: 3}
      propertyPath: m_Layer
      value: 6
      objectReference: {fileID: 0}
    - target: {fileID: 2222524618564969129, guid: 7dcbf5cd124ec3849b5d1c4b959f43b7, type: 3}
      propertyPath: m_Layer
      value: 6
      objectReference: {fileID: 0}
    - target: {fileID: 2222524618656342940, guid: 7dcbf5cd124ec3849b5d1c4b959f43b7, type: 3}
      propertyPath: m_Layer
      value: 6
      objectReference: {fileID: 0}
    - target: {fileID: 2712935842043041916, guid: 7dcbf5cd124ec3849b5d1c4b959f43b7, type: 3}
      propertyPath: m_Layer
      value: 6
      objectReference: {fileID: 0}
    - target: {fileID: 2718165170720111211, guid: 7dcbf5cd124ec3849b5d1c4b959f43b7, type: 3}
      propertyPath: m_Layer
      value: 6
      objectReference: {fileID: 0}
    - target: {fileID: 2938084584674223027, guid: 7dcbf5cd124ec3849b5d1c4b959f43b7, type: 3}
      propertyPath: m_RootOrder
      value: 68
      objectReference: {fileID: 0}
    - target: {fileID: 2954774763695304493, guid: 7dcbf5cd124ec3849b5d1c4b959f43b7, type: 3}
      propertyPath: m_RootOrder
      value: 73
      objectReference: {fileID: 0}
    - target: {fileID: 3035508369682150067, guid: 7dcbf5cd124ec3849b5d1c4b959f43b7, type: 3}
      propertyPath: m_RootOrder
      value: 67
      objectReference: {fileID: 0}
    - target: {fileID: 3072646757258954284, guid: 7dcbf5cd124ec3849b5d1c4b959f43b7, type: 3}
      propertyPath: m_RootOrder
      value: 85
      objectReference: {fileID: 0}
    - target: {fileID: 3283564826694873797, guid: 7dcbf5cd124ec3849b5d1c4b959f43b7, type: 3}
      propertyPath: m_RootOrder
      value: 69
      objectReference: {fileID: 0}
    - target: {fileID: 3594867780432044302, guid: 7dcbf5cd124ec3849b5d1c4b959f43b7, type: 3}
      propertyPath: m_RootOrder
      value: 53
      objectReference: {fileID: 0}
    - target: {fileID: 3596958865063245830, guid: 7dcbf5cd124ec3849b5d1c4b959f43b7, type: 3}
      propertyPath: m_Layer
      value: 6
      objectReference: {fileID: 0}
    - target: {fileID: 3637807432656465160, guid: 7dcbf5cd124ec3849b5d1c4b959f43b7, type: 3}
      propertyPath: m_RootOrder
      value: 51
      objectReference: {fileID: 0}
    - target: {fileID: 3695806628024229443, guid: 7dcbf5cd124ec3849b5d1c4b959f43b7, type: 3}
      propertyPath: m_RootOrder
      value: 63
      objectReference: {fileID: 0}
    - target: {fileID: 3706038845872108180, guid: 7dcbf5cd124ec3849b5d1c4b959f43b7, type: 3}
      propertyPath: m_Layer
      value: 6
      objectReference: {fileID: 0}
    - target: {fileID: 3869487727167956608, guid: 7dcbf5cd124ec3849b5d1c4b959f43b7, type: 3}
      propertyPath: m_Size.y
      value: 5
      objectReference: {fileID: 0}
    - target: {fileID: 3869487727167956608, guid: 7dcbf5cd124ec3849b5d1c4b959f43b7, type: 3}
      propertyPath: m_Center.y
      value: 1
      objectReference: {fileID: 0}
    - target: {fileID: 3869487727167956609, guid: 7dcbf5cd124ec3849b5d1c4b959f43b7, type: 3}
      propertyPath: Width
      value: 16.5
      objectReference: {fileID: 0}
    - target: {fileID: 3869487727167956609, guid: 7dcbf5cd124ec3849b5d1c4b959f43b7, type: 3}
      propertyPath: Height
      value: 16.5
      objectReference: {fileID: 0}
    - target: {fileID: 3869487727167956612, guid: 7dcbf5cd124ec3849b5d1c4b959f43b7, type: 3}
      propertyPath: m_RootOrder
      value: 0
      objectReference: {fileID: 0}
    - target: {fileID: 3869487727167956612, guid: 7dcbf5cd124ec3849b5d1c4b959f43b7, type: 3}
      propertyPath: m_LocalPosition.x
      value: 0
      objectReference: {fileID: 0}
    - target: {fileID: 3869487727167956612, guid: 7dcbf5cd124ec3849b5d1c4b959f43b7, type: 3}
      propertyPath: m_LocalPosition.y
      value: 0
      objectReference: {fileID: 0}
    - target: {fileID: 3869487727167956612, guid: 7dcbf5cd124ec3849b5d1c4b959f43b7, type: 3}
      propertyPath: m_LocalPosition.z
      value: 0
      objectReference: {fileID: 0}
    - target: {fileID: 3869487727167956612, guid: 7dcbf5cd124ec3849b5d1c4b959f43b7, type: 3}
      propertyPath: m_LocalRotation.w
      value: 1
      objectReference: {fileID: 0}
    - target: {fileID: 3869487727167956612, guid: 7dcbf5cd124ec3849b5d1c4b959f43b7, type: 3}
      propertyPath: m_LocalRotation.x
      value: -0
      objectReference: {fileID: 0}
    - target: {fileID: 3869487727167956612, guid: 7dcbf5cd124ec3849b5d1c4b959f43b7, type: 3}
      propertyPath: m_LocalRotation.y
      value: -0
      objectReference: {fileID: 0}
    - target: {fileID: 3869487727167956612, guid: 7dcbf5cd124ec3849b5d1c4b959f43b7, type: 3}
      propertyPath: m_LocalRotation.z
      value: -0
      objectReference: {fileID: 0}
    - target: {fileID: 3869487727167956612, guid: 7dcbf5cd124ec3849b5d1c4b959f43b7, type: 3}
      propertyPath: m_LocalEulerAnglesHint.x
      value: 0
      objectReference: {fileID: 0}
    - target: {fileID: 3869487727167956612, guid: 7dcbf5cd124ec3849b5d1c4b959f43b7, type: 3}
      propertyPath: m_LocalEulerAnglesHint.y
      value: 0
      objectReference: {fileID: 0}
    - target: {fileID: 3869487727167956612, guid: 7dcbf5cd124ec3849b5d1c4b959f43b7, type: 3}
      propertyPath: m_LocalEulerAnglesHint.z
      value: 0
      objectReference: {fileID: 0}
    - target: {fileID: 3869487727167956615, guid: 7dcbf5cd124ec3849b5d1c4b959f43b7, type: 3}
      propertyPath: m_Name
      value: Entry Room 3D
      objectReference: {fileID: 0}
    - target: {fileID: 3950473622308328174, guid: 7dcbf5cd124ec3849b5d1c4b959f43b7, type: 3}
      propertyPath: m_RootOrder
      value: 81
      objectReference: {fileID: 0}
    - target: {fileID: 4020776271485226480, guid: 7dcbf5cd124ec3849b5d1c4b959f43b7, type: 3}
      propertyPath: m_Layer
      value: 6
      objectReference: {fileID: 0}
    - target: {fileID: 4061892751077170723, guid: 7dcbf5cd124ec3849b5d1c4b959f43b7, type: 3}
      propertyPath: m_RootOrder
      value: 58
      objectReference: {fileID: 0}
    - target: {fileID: 4556076059891223402, guid: 7dcbf5cd124ec3849b5d1c4b959f43b7, type: 3}
      propertyPath: m_RootOrder
      value: 80
      objectReference: {fileID: 0}
    - target: {fileID: 4691873607047609139, guid: 7dcbf5cd124ec3849b5d1c4b959f43b7, type: 3}
      propertyPath: m_RootOrder
      value: 54
      objectReference: {fileID: 0}
    - target: {fileID: 4861510992714771489, guid: 7dcbf5cd124ec3849b5d1c4b959f43b7, type: 3}
      propertyPath: m_RootOrder
      value: 56
      objectReference: {fileID: 0}
    - target: {fileID: 4944398604757539774, guid: 7dcbf5cd124ec3849b5d1c4b959f43b7, type: 3}
      propertyPath: m_RootOrder
      value: 46
      objectReference: {fileID: 0}
    - target: {fileID: 5614399515755160177, guid: 7dcbf5cd124ec3849b5d1c4b959f43b7, type: 3}
      propertyPath: m_RootOrder
      value: 77
      objectReference: {fileID: 0}
    - target: {fileID: 5637776743189480587, guid: 7dcbf5cd124ec3849b5d1c4b959f43b7, type: 3}
      propertyPath: m_RootOrder
      value: 55
      objectReference: {fileID: 0}
    - target: {fileID: 5686050429442378345, guid: 7dcbf5cd124ec3849b5d1c4b959f43b7, type: 3}
      propertyPath: m_RootOrder
      value: 64
      objectReference: {fileID: 0}
    - target: {fileID: 6038039782086706477, guid: 7dcbf5cd124ec3849b5d1c4b959f43b7, type: 3}
      propertyPath: m_RootOrder
      value: 74
      objectReference: {fileID: 0}
    - target: {fileID: 6062055594578697781, guid: 7dcbf5cd124ec3849b5d1c4b959f43b7, type: 3}
      propertyPath: m_RootOrder
      value: 79
      objectReference: {fileID: 0}
    - target: {fileID: 6289822034238104522, guid: 7dcbf5cd124ec3849b5d1c4b959f43b7, type: 3}
      propertyPath: m_RootOrder
      value: 65
      objectReference: {fileID: 0}
    - target: {fileID: 6524472760984492347, guid: 7dcbf5cd124ec3849b5d1c4b959f43b7, type: 3}
      propertyPath: m_Layer
      value: 6
      objectReference: {fileID: 0}
    - target: {fileID: 6755330681331428732, guid: 7dcbf5cd124ec3849b5d1c4b959f43b7, type: 3}
      propertyPath: m_RootOrder
      value: 52
      objectReference: {fileID: 0}
    - target: {fileID: 7006951704818773455, guid: 7dcbf5cd124ec3849b5d1c4b959f43b7, type: 3}
      propertyPath: m_RootOrder
      value: 61
      objectReference: {fileID: 0}
    - target: {fileID: 7098427803007320357, guid: 7dcbf5cd124ec3849b5d1c4b959f43b7, type: 3}
      propertyPath: m_RootOrder
      value: 62
      objectReference: {fileID: 0}
    - target: {fileID: 7166556418545361355, guid: 7dcbf5cd124ec3849b5d1c4b959f43b7, type: 3}
      propertyPath: m_RootOrder
      value: 60
      objectReference: {fileID: 0}
    - target: {fileID: 7183071639075077683, guid: 7dcbf5cd124ec3849b5d1c4b959f43b7, type: 3}
      propertyPath: m_RootOrder
      value: 57
      objectReference: {fileID: 0}
    - target: {fileID: 7508821651376318620, guid: 7dcbf5cd124ec3849b5d1c4b959f43b7, type: 3}
      propertyPath: m_Layer
      value: 6
      objectReference: {fileID: 0}
    - target: {fileID: 7628838343205523447, guid: 7dcbf5cd124ec3849b5d1c4b959f43b7, type: 3}
      propertyPath: m_Layer
      value: 6
      objectReference: {fileID: 0}
    - target: {fileID: 7695769009286833530, guid: 7dcbf5cd124ec3849b5d1c4b959f43b7, type: 3}
      propertyPath: m_RootOrder
      value: 78
      objectReference: {fileID: 0}
    - target: {fileID: 7927731232493258001, guid: 7dcbf5cd124ec3849b5d1c4b959f43b7, type: 3}
      propertyPath: m_RootOrder
      value: 82
      objectReference: {fileID: 0}
    - target: {fileID: 7950400143420897955, guid: 7dcbf5cd124ec3849b5d1c4b959f43b7, type: 3}
      propertyPath: m_RootOrder
      value: 47
      objectReference: {fileID: 0}
    - target: {fileID: 8064492726772343399, guid: 7dcbf5cd124ec3849b5d1c4b959f43b7, type: 3}
      propertyPath: m_Layer
      value: 6
      objectReference: {fileID: 0}
    - target: {fileID: 8085400732991738988, guid: 7dcbf5cd124ec3849b5d1c4b959f43b7, type: 3}
      propertyPath: m_RootOrder
      value: 84
      objectReference: {fileID: 0}
    - target: {fileID: 8181094728862520527, guid: 7dcbf5cd124ec3849b5d1c4b959f43b7, type: 3}
      propertyPath: m_Layer
      value: 6
      objectReference: {fileID: 0}
    - target: {fileID: 8633156608062730947, guid: 7dcbf5cd124ec3849b5d1c4b959f43b7, type: 3}
      propertyPath: m_RootOrder
      value: 71
      objectReference: {fileID: 0}
    - target: {fileID: 8653340584934970281, guid: 7dcbf5cd124ec3849b5d1c4b959f43b7, type: 3}
      propertyPath: m_RootOrder
      value: 59
      objectReference: {fileID: 0}
    - target: {fileID: 8766511632108728037, guid: 7dcbf5cd124ec3849b5d1c4b959f43b7, type: 3}
      propertyPath: m_RootOrder
      value: 50
      objectReference: {fileID: 0}
    - target: {fileID: 8840521042575499404, guid: 7dcbf5cd124ec3849b5d1c4b959f43b7, type: 3}
      propertyPath: m_Layer
      value: 6
      objectReference: {fileID: 0}
    - target: {fileID: 9098726096966904525, guid: 7dcbf5cd124ec3849b5d1c4b959f43b7, type: 3}
      propertyPath: m_RootOrder
      value: 76
      objectReference: {fileID: 0}
    - target: {fileID: 9129149209649422228, guid: 7dcbf5cd124ec3849b5d1c4b959f43b7, type: 3}
      propertyPath: m_Layer
      value: 6
      objectReference: {fileID: 0}
    m_RemovedComponents: []
  m_SourcePrefab: {fileID: 100100000, guid: 7dcbf5cd124ec3849b5d1c4b959f43b7, type: 3}
--- !u!1 &597579811 stripped
GameObject:
  m_CorrespondingSourceObject: {fileID: 3869487727167956615, guid: 7dcbf5cd124ec3849b5d1c4b959f43b7, type: 3}
  m_PrefabInstance: {fileID: 597579810}
  m_PrefabAsset: {fileID: 0}
--- !u!4 &1380450178 stripped
Transform:
  m_CorrespondingSourceObject: {fileID: 3869487727167956612, guid: 7dcbf5cd124ec3849b5d1c4b959f43b7, type: 3}
  m_PrefabInstance: {fileID: 597579810}
  m_PrefabAsset: {fileID: 0}
--- !u!114 &1380450179
MonoBehaviour:
  m_ObjectHideFlags: 0
  m_CorrespondingSourceObject: {fileID: 0}
  m_PrefabInstance: {fileID: 0}
  m_PrefabAsset: {fileID: 0}
  m_GameObject: {fileID: 597579811}
  m_Enabled: 1
  m_EditorHideFlags: 0
  m_Script: {fileID: 11500000, guid: 3b12c34daed37654ab7b34983c156bfb, type: 3}
  m_Name: 
  m_EditorClassIdentifier: 
  spawner:
  - prefab: {fileID: 5724599431974298804, guid: d5282e23d73deba4bbe550a1c250fdfe, type: 3}
    chance: 50
    weight: 0
  - prefab: {fileID: 9170357326730428746, guid: 76882a36de88b5a418c5aa6d8e66934a, type: 3}
    chance: 50
    weight: 0
  grid: {fileID: 382347927}
  spawnerData:
  - name: ChaseEnemy
    spawnerData: {fileID: 11400000, guid: d11dab13a9d8fbc43956f03c41359bf8, type: 2}
